Final Project Cluster Analysis MGMT 6770
…
  delta1 = c(as.numeric(scaledUnknown[i,])-as.numeric(clusterCenterSave[1,]))
  delta1 = sqrt(sum(delta1^2))
  
  delta2 = c(as.numeric(scaledUnknown[i,])-as.numeric(clusterCenterSave[2,]))
  delta2 = sqrt(sum(delta2^2))
  
saveTrans[i,]=c(i, min(delta1, delta2))
}

find the 50 smallest distances

sortSaveTrans = sort(saveTrans[,2], index.return=TRUE)
print(unkDataFrame[sortSaveTrans$ix[1:100],])

## # A tibble: 100 x 6
##    ID    Prod    Quant    Val Insp   perItem
##    <fct> <fct>   <dbl>  <dbl> <fct>    <dbl>
##  1 v2931 p2451     139 597265 unkn  4297.   
##  2 v2959 p2456     140 638550 unkn  4561.   
##  3 v2931 p2451     141 646355 unkn  4584.   
##  4 v2959 p2456     148 693850 unkn  4688.   
##  5 v2966 p2456     119 474255 unkn  3985.   
##  6 v4870 p2456     100 430815 unkn  4308.   
##  7 v4998 p4513 2849705 419390 unkn     0.147
##  8 v4998 p4513 2849705 419390 unkn     0.147
##  9 v3901 p319  3360100 738820 unkn     0.220
## 10 v3901 p314  3092555 654440 unkn     0.212
## # ... with 90 more rows
…
